{
  "$schema": "https://schema.management.azure.com/schemas/2015-01-01/deploymentTemplate.json#",
  "contentVersion": "1.0.0.1",
  "parameters": {
    "workspaceName": {
      "type": "string"
    },
     "dataRetention": {
          "type": "int",
          "defaultValue": 90,
          "minValue": 7,
          "maxValue": 730,
          "metadata": {
              "description": "Number of days of retention."
          }
      },
      "dailyCap": {
          "type": "int",
          "defaultValue": 500,
          "metadata":{
              "description": "Puts a limit on the ingested data. After the amount is reached no more data is going to be ingested into the log analytics workspace in that 24hours window."
          }
      },
      "pricingTier": {
            "type": "string",
            "allowedValues": [
                "PerGB2018",
                "Free",
                "Standalone",
                "PerNode",
                "Standard",
                "Premium"
            ],
            "defaultValue": "PerGB2018"
        }
  },
  "variables": {},
  "functions": [],
  "resources": [
    {
      "type": "Microsoft.OperationalInsights/workspaces",
      "apiVersion": "2020-08-01",
      "name": "[parameters('workspaceName')]",
      "location": "[resourceGroup().location]",
      "properties": {
        "retentionInDays": "[parameters('dataRetention')]",
        "sku": {
          "name": "[parameters('pricingTier')]"
        },
        "workspaceCapping": {
            "dailyQuotaGb": "[parameters('dailyCap')]"
        }
      }
    },
    {
      "type": "Microsoft.OperationsManagement/solutions",
      "apiVersion": "2015-11-01-preview",
      "name": "[format('SecurityInsights({0})', parameters('workspaceName'))]",
      "location": "[resourceGroup().location]",
      "properties": {
        "workspaceResourceId": "[resourceId('Microsoft.OperationalInsights/workspaces', parameters('workspaceName'))]"
      },
      "plan": {
        "name": "[format('SecurityInsights({0})', parameters('workspaceName'))]",
        "product": "OMSGallery/SecurityInsights",
        "publisher": "Microsoft",
        "promotionCode": ""
      },
      "dependsOn": [
        "[resourceId('Microsoft.OperationalInsights/workspaces', parameters('workspaceName'))]"
      ]
    }
  ],
  "outputs": {}
}
